{
  "places": [
    "T1:00",
    "T1:01",
    "T1:02",
    "T1:03",
    "T1:04",
    "T1:05",
    "T1:06",
    "T1:07",
    "T1:08",
    "T1:09",
    "T1:10",
    "T1:11",
    "T1:12",
    "T1:13",
    "T1:14",
    "T1:15",
    "T1:16",
    "T1:17",
    "T1:18",
    "T1:19",
    "T1:20",
    "T1:21",
    "T1:22",
    "T1:23",
    "T1:24",
    "T1:25",
    "T1:26",
    "T1:27",
    "T1:28",
    "T1:29",
    "T1:30",
    "T1:31",
    "T1:32",
    "T1:33",
    "T1:34",
    "T1:35",
    "T1:36",
    "T1:37",
    "T1:38",
    "T1:39",
    "T1:40",
    "T1:41",
    "T1:42",
    "T1:43",
    "T1:44",
    "T1:45",
    "T1:46",
    "T1:47",
    "T1:48",
    "T1:49",
    "T1:50",
    "T1:51",
    "T1:52",
    "T1:53",
    "T1:54",
    "T1:55",
    "T1:56",
    "T1:57",
    "T1:58",
    "T1:59",
    "T1:60",
    "T1:61",
    "T1:62",
    "T1:63",
    "T1:64",
    "T1:65",
    "T1:66",
    "T1:67",
    "T1:68",
    "T1:69",
    "T1:70",
    "T1:71",
    "T1:72",
    "T1:73",
    "T1:74",
    "T1:75",
    "T1:76",
    "T1:77",
    "T1:78",
    "T1:79",
    "T1:80",
    "T1:81",
    "T1:82",
    "T1:83",
    "T1:84",
    "T1:85",
    "T1:86",
    "T1:87",
    "T1:88",
    "T1:89",
    "T1:90",
    "T1:91",
    "T1:92",
    "T1:93",
    "T1:94",
    "T1:95",
    "T1:96",
    "T1:97",
    "T1:98",
    "T1:99",
    "T2:00",
    "T2:01",
    "T2:02",
    "T2:03",
    "T2:04",
    "T2:05",
    "T2:06",
    "T2:07",
    "T2:08",
    "T2:09",
    "T2:10",
    "T2:11",
    "T2:12",
    "T2:13",
    "T2:14",
    "T2:15",
    "T2:16",
    "T2:17",
    "T2:18",
    "T2:19",
    "T2:20",
    "T2:21",
    "T2:22",
    "T2:23",
    "T2:24",
    "T2:25",
    "T2:26",
    "T2:27",
    "T2:28",
    "T2:29",
    "T2:30",
    "T2:31",
    "T2:32",
    "T2:33",
    "T2:34",
    "T2:35",
    "T2:36",
    "T2:37",
    "T2:38",
    "T2:39",
    "T2:40",
    "T2:41",
    "T2:42",
    "T2:43",
    "T2:44",
    "T2:45",
    "T2:46",
    "T2:47",
    "T2:48",
    "T2:49",
    "T2:50",
    "T2:51",
    "T2:52",
    "T2:53",
    "T2:54",
    "T2:55",
    "T2:56",
    "T2:57",
    "T2:58",
    "T2:59",
    "T2:60",
    "T2:61",
    "T2:62",
    "T2:63",
    "T2:64",
    "T2:65",
    "T2:66",
    "T2:67",
    "T2:68",
    "T2:69",
    "T2:70",
    "T2:71",
    "T2:72",
    "T2:73",
    "T2:74",
    "T2:75",
    "T2:76",
    "T2:77",
    "T2:78",
    "T2:79",
    "T2:80",
    "T2:81",
    "T2:82",
    "T2:83",
    "T2:84",
    "T2:85",
    "T2:86",
    "T2:87",
    "T2:88",
    "T2:89",
    "T2:90",
    "T2:91",
    "T2:92",
    "T2:93",
    "T2:94",
    "T2:95",
    "T2:96",
    "T2:97",
    "T2:98",
    "T2:99",
    "T3:00",
    "T3:01",
    "T3:02",
    "T3:03",
    "T3:04",
    "T3:05",
    "T3:06",
    "T3:07",
    "T3:08",
    "T3:09",
    "T3:10",
    "T3:11",
    "T3:12",
    "T3:13",
    "T3:14",
    "T3:15",
    "T3:16",
    "T3:17",
    "T3:18",
    "T3:19",
    "T3:20",
    "T3:21",
    "T3:22",
    "T3:23",
    "T3:24",
    "T3:25",
    "T3:26",
    "T3:27",
    "T3:28",
    "T3:29",
    "T3:30",
    "T3:31",
    "T3:32",
    "T3:33",
    "T3:34",
    "T3:35",
    "T3:36",
    "T3:37",
    "T3:38",
    "T3:39",
    "T3:40",
    "T3:41",
    "T3:42",
    "T3:43",
    "T3:44",
    "T3:45",
    "T3:46",
    "T3:47",
    "T3:48",
    "T3:49",
    "T3:50",
    "T3:51",
    "T3:52",
    "T3:53",
    "T3:54",
    "T3:55",
    "T3:56",
    "T3:57",
    "T3:58",
    "T3:59",
    "T3:60",
    "T3:61",
    "T3:62",
    "T3:63",
    "T3:64",
    "T3:65",
    "T3:66",
    "T3:67",
    "T3:68",
    "T3:69",
    "T3:70",
    "T3:71",
    "T3:72",
    "T3:73",
    "T3:74",
    "T3:75",
    "T3:76",
    "T3:77",
    "T3:78",
    "T3:79",
    "T3:80",
    "T3:81",
    "T3:82",
    "T3:83",
    "T3:84",
    "T3:85",
    "T3:86",
    "T3:87",
    "T3:88",
    "T3:89",
    "T3:90",
    "T3:91",
    "T3:92",
    "T3:93",
    "T3:94",
    "T3:95",
    "T3:96",
    "T3:97",
    "T3:98",
    "T3:99",
    "T4:00",
    "T4:01",
    "T4:02",
    "T4:03",
    "T4:04",
    "T4:05",
    "T4:06",
    "T4:07",
    "T4:08",
    "T4:09",
    "T4:10",
    "T4:11",
    "T4:12",
    "T4:13",
    "T4:14",
    "T4:15",
    "T4:16",
    "T4:17",
    "T4:18",
    "T4:19",
    "T4:20",
    "T4:21",
    "T4:22",
    "T4:23",
    "T4:24",
    "T4:25",
    "T4:26",
    "T4:27",
    "T4:28",
    "T4:29",
    "T4:30",
    "T4:31",
    "T4:32",
    "T4:33",
    "T4:34",
    "T4:35",
    "T4:36",
    "T4:37",
    "T4:38",
    "T4:39",
    "T4:40",
    "T4:41",
    "T4:42",
    "T4:43",
    "T4:44",
    "T4:45",
    "T4:46",
    "T4:47",
    "T4:48",
    "T4:49",
    "T4:50",
    "T4:51",
    "T4:52",
    "T4:53",
    "T4:54",
    "T4:55",
    "T4:56",
    "T4:57",
    "T4:58",
    "T4:59",
    "T4:60",
    "T4:61",
    "T4:62",
    "T4:63",
    "T4:64",
    "T4:65",
    "T4:66",
    "T4:67",
    "T4:68",
    "T4:69",
    "T4:70",
    "T4:71",
    "T4:72",
    "T4:73",
    "T4:74",
    "T4:75",
    "T4:76",
    "T4:77",
    "T4:78",
    "T4:79",
    "T4:80",
    "T4:81",
    "T4:82",
    "T4:83",
    "T4:84",
    "T4:85",
    "T4:86",
    "T4:87",
    "T4:88",
    "T4:89",
    "T4:90",
    "T4:91",
    "T4:92",
    "T4:93",
    "T4:94",
    "T4:95",
    "T4:96",
    "T4:97",
    "T4:98",
    "T4:99"
  ],
  "bookings": {
    "simgu797": {
      "place": "T2:12",
      "address": "otar",
      "mail": "simon@nomisiv.com"
    }
  },
  "teams": {}
}
